{
   "data": {
      "type": "BigNumbers",
      "attributes": {
         "invoices": {
            "approved": 325,
            "rejected": 20,
            "pending": 113
         }
      }
   },
   "success": true,
   "links": {
      "self": "{baseurl}/api/admin/bignumbers"
   }
}