{
    "data": [
        {
            "type": "Compensation",
            "id": "10",
            "attributes": {
                "amount": 10000,
                "currentBalance": 0,
                "reason": "Teste",
                "createdAt": "2023-06-30T20:31:25.000000Z"
            },
            "relationships": {
                "creator": {
                    "type": "User",
                    "id": "1",
                    "attributes": {
                        "role": "meeg",
                        "email": "admin@meeg.app",
                        "name": "Meeg",
                        "firstName": "Meeg"
                    },
                    "relationships": [],
                    "links": {
                        "self": "{baseUrl}/api/admin/users/1"
                    }
                },
                "user": {
                    "type": "User",
                    "id": "2",
                    "attributes": {
                        "role": "client",
                        "email": "jean@meeg.app",
                        "name": "Jean da Silva",
                        "firstName": "Jean"
                    },
                    "relationships": [],
                    "links": {
                        "self": "{baseUrl}/api/admin/users/2"
                    }
                }
            },
            "links": {
                "self": "{baseUrl}/api/admin/compensations/10"
            }
        }
    ],
    "success": true,
    "links": {
        "self": "{baseUrl}/api/admin/compensations"
    }
}